ISO-10303-21;
HEADER;
FILE_DESCRIPTION(('STEP AP203'),'1');
FILE_NAME('C:/TPO v2/SharedFS/Outgoing/cst-951rp-a.stp','2016-03-23T13:44:52',('TraceParts'),('TraceParts S.A.'),'Spatial InterOp 3D',' ',' ');
FILE_SCHEMA(('CONFIG_CONTROL_DESIGN'));
ENDSEC;
DATA;
#1=DESIGN_CONTEXT('',#27,'design');
#2=APPLICATION_PROTOCOL_DEFINITION('INTERNATIONAL STANDARD','config_control_design',1994,#27);
#3=PRODUCT_CATEGORY_RELATIONSHIP('NONE','NONE',#28,#29);
#4=DATE_AND_TIME(#30,#31);
#5=DATE_TIME_ROLE('creation_date');
#6=DATE_TIME_ROLE('classification_date');
#7=PERSON_AND_ORGANIZATION_ROLE('creator');
#8=PERSON_AND_ORGANIZATION_ROLE('design_supplier');
#9=PERSON_AND_ORGANIZATION_ROLE('classification_officer');
#10=PERSON_AND_ORGANIZATION_ROLE('design_owner');
#11=APPROVAL_PERSON_ORGANIZATION(#32,#33,#34);
#12=APPROVAL_DATE_TIME(#4,#33);
#13=CC_DESIGN_APPROVAL(#33,(#35,#36,#37));
#14=CC_DESIGN_DATE_AND_TIME_ASSIGNMENT(#4,#5,(#37));
#15=CC_DESIGN_DATE_AND_TIME_ASSIGNMENT(#4,#6,(#35));
#16=CC_DESIGN_PERSON_AND_ORGANIZATION_ASSIGNMENT(#32,#10,(#38));
#17=CC_DESIGN_PERSON_AND_ORGANIZATION_ASSIGNMENT(#32,#7,(#37));
#18=CC_DESIGN_PERSON_AND_ORGANIZATION_ASSIGNMENT(#32,#7,(#36));
#19=CC_DESIGN_PERSON_AND_ORGANIZATION_ASSIGNMENT(#32,#8,(#36));
#20=CC_DESIGN_SECURITY_CLASSIFICATION(#35,(#36));
#21=CC_DESIGN_PERSON_AND_ORGANIZATION_ASSIGNMENT(#32,#9,(#35));
#22=SHAPE_DEFINITION_REPRESENTATION(#39,#40);
#23= (GEOMETRIC_REPRESENTATION_CONTEXT(3)GLOBAL_UNCERTAINTY_ASSIGNED_CONTEXT((#43))GLOBAL_UNIT_ASSIGNED_CONTEXT((#45,#46,#47))REPRESENTATION_CONTEXT('NONE','WORKSPACE'));
#27=APPLICATION_CONTEXT('CONFIGURATION CONTROLLED 3D DESIGNS OF MECHANICAL PARTS AND ASSEMBLIES');
#28=PRODUCT_CATEGORY('part','NONE');
#29=PRODUCT_RELATED_PRODUCT_CATEGORY('detail',' ',(#38));
#30=CALENDAR_DATE(2016,23,2);
#31=LOCAL_TIME(14,44,52.0,#49);
#32=PERSON_AND_ORGANIZATION(#50,#51);
#33=APPROVAL(#52,'SOLID MODEL');
#34=APPROVAL_ROLE('APPROVED');
#35=SECURITY_CLASSIFICATION('','',#53);
#36=PRODUCT_DEFINITION_FORMATION_WITH_SPECIFIED_SOURCE(' ','NONE',#38,.NOT_KNOWN.);
#37=PRODUCT_DEFINITION('NONE','NONE',#36,#1);
#38=PRODUCT('1','1','PART-1-DESC',(#54));
#39=PRODUCT_DEFINITION_SHAPE('NONE','NONE',#37);
#40=ADVANCED_BREP_SHAPE_REPRESENTATION('1',(#55,#56),#23);
#43=UNCERTAINTY_MEASURE_WITH_UNIT(LENGTH_MEASURE(1.0E-006),#45,'','');
#45= (CONVERSION_BASED_UNIT('MILLIMETRE',#59)LENGTH_UNIT()NAMED_UNIT(#62));
#46= (NAMED_UNIT(#64)PLANE_ANGLE_UNIT()SI_UNIT($,.RADIAN.));
#47= (NAMED_UNIT(#64)SOLID_ANGLE_UNIT()SI_UNIT($,.STERADIAN.));
#49=COORDINATED_UNIVERSAL_TIME_OFFSET(1,0,.AHEAD.);
#50=PERSON('','UNSPECIFIED',$,$,$,$);
#51=ORGANIZATION('UNSPECIFIED','UNSPECIFIED','UNSPECIFIED');
#52=APPROVAL_STATUS('approved');
#53=SECURITY_CLASSIFICATION_LEVEL('unclassified');
#54=MECHANICAL_CONTEXT('',#27,'mechanical');
#55=MANIFOLD_SOLID_BREP('1',#70);
#56=AXIS2_PLACEMENT_3D('',#71,#72,#73);
#59=LENGTH_MEASURE_WITH_UNIT(LENGTH_MEASURE(1.0),#74);
#62=DIMENSIONAL_EXPONENTS(1.0,0.0,0.0,0.0,0.0,0.0,0.0);
#64=DIMENSIONAL_EXPONENTS(0.0,0.0,0.0,0.0,0.0,0.0,0.0);
#70=CLOSED_SHELL('',(#75,#76,#77,#78,#79,#80,#81,#82,#83,#84,#85,#86,#87,#88,#89,#90,#91,#92,#93,#94,#95,#96,#97,#98,#99,#100,#101,#102,#103,#104,#105,#106,#107,#108,#109,#110,#111,#112,#113));
#71=CARTESIAN_POINT('',(0.0,0.0,0.0));
#72=DIRECTION('',(0.0,0.0,1.0));
#73=DIRECTION('',(1.0,0.0,0.0));
#74= (NAMED_UNIT(#62)LENGTH_UNIT()SI_UNIT(.MILLI.,.METRE.));
#75=ADVANCED_FACE('',(#115),#116,.F.);
#76=ADVANCED_FACE('',(#117),#118,.T.);
#77=ADVANCED_FACE('',(#119),#120,.T.);
#78=ADVANCED_FACE('',(#121),#122,.F.);
#79=ADVANCED_FACE('',(#123),#124,.T.);
#80=ADVANCED_FACE('',(#125),#126,.T.);
#81=ADVANCED_FACE('',(#127,#128,#129),#130,.T.);
#82=ADVANCED_FACE('',(#131),#132,.F.);
#83=ADVANCED_FACE('',(#133),#134,.F.);
#84=ADVANCED_FACE('',(#135),#136,.F.);
#85=ADVANCED_FACE('',(#137),#138,.T.);
#86=ADVANCED_FACE('',(#139),#140,.T.);
#87=ADVANCED_FACE('',(#141),#142,.T.);
#88=ADVANCED_FACE('',(#143),#144,.F.);
#89=ADVANCED_FACE('',(#145),#146,.F.);
#90=ADVANCED_FACE('',(#147),#148,.F.);
#91=ADVANCED_FACE('',(#149),#150,.F.);
#92=ADVANCED_FACE('',(#151),#152,.F.);
#93=ADVANCED_FACE('',(#153),#154,.F.);
#94=ADVANCED_FACE('',(#155),#156,.F.);
#95=ADVANCED_FACE('',(#157),#158,.F.);
#96=ADVANCED_FACE('',(#159),#160,.F.);
#97=ADVANCED_FACE('',(#161),#162,.F.);
#98=ADVANCED_FACE('',(#163),#164,.F.);
#99=ADVANCED_FACE('',(#165),#166,.F.);
#100=ADVANCED_FACE('',(#167),#168,.F.);
#101=ADVANCED_FACE('',(#169),#170,.T.);
#102=ADVANCED_FACE('',(#171),#172,.F.);
#103=ADVANCED_FACE('',(#173),#174,.T.);
#104=ADVANCED_FACE('',(#175),#176,.T.);
#105=ADVANCED_FACE('',(#177),#178,.F.);
#106=ADVANCED_FACE('',(#179),#180,.T.);
#107=ADVANCED_FACE('',(#181,#182),#183,.T.);
#108=ADVANCED_FACE('',(#184),#185,.T.);
#109=ADVANCED_FACE('',(#186),#187,.F.);
#110=ADVANCED_FACE('',(#188),#189,.F.);
#111=ADVANCED_FACE('',(#190),#191,.F.);
#112=ADVANCED_FACE('',(#192),#193,.F.);
#113=ADVANCED_FACE('',(#194),#195,.T.);
#115=FACE_OUTER_BOUND('',#196,.T.);
#116=CYLINDRICAL_SURFACE('',#197,4.0);
#117=FACE_OUTER_BOUND('',#198,.T.);
#118=CYLINDRICAL_SURFACE('',#199,0.3);
#119=FACE_OUTER_BOUND('',#200,.T.);
#120=CYLINDRICAL_SURFACE('',#201,0.3);
#121=FACE_OUTER_BOUND('',#202,.T.);
#122=CYLINDRICAL_SURFACE('',#203,4.0);
#123=FACE_OUTER_BOUND('',#204,.T.);
#124=CYLINDRICAL_SURFACE('',#205,4.5);
#125=FACE_OUTER_BOUND('',#206,.T.);
#126=CYLINDRICAL_SURFACE('',#207,4.5);
#127=FACE_OUTER_BOUND('',#208,.T.);
#128=FACE_BOUND('',#209,.T.);
#129=FACE_BOUND('',#210,.T.);
#130=PLANE('',#211);
#131=FACE_OUTER_BOUND('',#212,.T.);
#132=PLANE('',#213);
#133=FACE_OUTER_BOUND('',#214,.T.);
#134=PLANE('',#215);
#135=FACE_OUTER_BOUND('',#216,.T.);
#136=PLANE('',#217);
#137=FACE_OUTER_BOUND('',#218,.T.);
#138=CYLINDRICAL_SURFACE('',#219,4.5);
#139=FACE_OUTER_BOUND('',#220,.T.);
#140=CYLINDRICAL_SURFACE('',#221,4.5);
#141=FACE_OUTER_BOUND('',#222,.T.);
#142=PLANE('',#223);
#143=FACE_OUTER_BOUND('',#224,.T.);
#144=PLANE('',#225);
#145=FACE_OUTER_BOUND('',#226,.T.);
#146=PLANE('',#227);
#147=FACE_OUTER_BOUND('',#228,.T.);
#148=CYLINDRICAL_SURFACE('',#229,4.0);
#149=FACE_OUTER_BOUND('',#230,.T.);
#150=PLANE('',#231);
#151=FACE_OUTER_BOUND('',#232,.T.);
#152=PLANE('',#233);
#153=FACE_OUTER_BOUND('',#234,.T.);
#154=CYLINDRICAL_SURFACE('',#235,4.0);
#155=FACE_OUTER_BOUND('',#236,.T.);
#156=PLANE('',#237);
#157=FACE_OUTER_BOUND('',#238,.T.);
#158=PLANE('',#239);
#159=FACE_OUTER_BOUND('',#240,.T.);
#160=CYLINDRICAL_SURFACE('',#241,4.0);
#161=FACE_OUTER_BOUND('',#242,.T.);
#162=PLANE('',#243);
#163=FACE_OUTER_BOUND('',#244,.T.);
#164=PLANE('',#245);
#165=FACE_OUTER_BOUND('',#246,.T.);
#166=CYLINDRICAL_SURFACE('',#247,4.0);
#167=FACE_OUTER_BOUND('',#248,.T.);
#168=PLANE('',#249);
#169=FACE_OUTER_BOUND('',#250,.T.);
#170=CYLINDRICAL_SURFACE('',#251,0.3);
#171=FACE_OUTER_BOUND('',#252,.T.);
#172=PLANE('',#253);
#173=FACE_OUTER_BOUND('',#254,.T.);
#174=CYLINDRICAL_SURFACE('',#255,0.3);
#175=FACE_OUTER_BOUND('',#256,.T.);
#176=PLANE('',#257);
#177=FACE_OUTER_BOUND('',#258,.T.);
#178=PLANE('',#259);
#179=FACE_OUTER_BOUND('',#260,.T.);
#180=PLANE('',#261);
#181=FACE_OUTER_BOUND('',#262,.T.);
#182=FACE_BOUND('',#263,.T.);
#183=PLANE('',#264);
#184=FACE_OUTER_BOUND('',#265,.T.);
#185=PLANE('',#266);
#186=FACE_OUTER_BOUND('',#267,.T.);
#187=PLANE('',#268);
#188=FACE_OUTER_BOUND('',#269,.T.);
#189=PLANE('',#270);
#190=FACE_OUTER_BOUND('',#271,.T.);
#191=PLANE('',#272);
#192=FACE_OUTER_BOUND('',#273,.T.);
#193=PLANE('',#274);
#194=FACE_OUTER_BOUND('',#275,.T.);
#195=PLANE('',#276);
#196=EDGE_LOOP('',(#277,#278,#279,#280));
#197=AXIS2_PLACEMENT_3D('',#281,#282,#283);
#198=EDGE_LOOP('',(#284,#285,#286,#287));
#199=AXIS2_PLACEMENT_3D('',#288,#289,#290);
#200=EDGE_LOOP('',(#291,#292,#293,#294));
#201=AXIS2_PLACEMENT_3D('',#295,#296,#297);
#202=EDGE_LOOP('',(#298,#299,#300,#301));
#203=AXIS2_PLACEMENT_3D('',#302,#303,#304);
#204=EDGE_LOOP('',(#305,#306,#307,#308));
#205=AXIS2_PLACEMENT_3D('',#309,#310,#311);
#206=EDGE_LOOP('',(#312,#313,#314,#315,#316,#317,#318,#319,#320,#321,#322,#323,#324));
#207=AXIS2_PLACEMENT_3D('',#325,#326,#327);
#208=EDGE_LOOP('',(#328,#329,#330,#331,#332,#333,#334,#335,#336,#337,#338,#339,#340,#341,#342,#343,#344,#345));
#209=EDGE_LOOP('',(#346,#347));
#210=EDGE_LOOP('',(#348,#349));
#211=AXIS2_PLACEMENT_3D('',#350,#351,#352);
#212=EDGE_LOOP('',(#353,#354,#355,#356,#357,#358));
#213=AXIS2_PLACEMENT_3D('',#359,#360,#361);
#214=EDGE_LOOP('',(#362,#363,#364,#365));
#215=AXIS2_PLACEMENT_3D('',#366,#367,#368);
#216=EDGE_LOOP('',(#369,#370,#371,#372,#373,#374));
#217=AXIS2_PLACEMENT_3D('',#375,#376,#377);
#218=EDGE_LOOP('',(#378,#379,#380,#381,#382,#383,#384,#385,#386,#387,#388,#389,#390));
#219=AXIS2_PLACEMENT_3D('',#391,#392,#393);
#220=EDGE_LOOP('',(#394,#395,#396,#397));
#221=AXIS2_PLACEMENT_3D('',#398,#399,#400);
#222=EDGE_LOOP('',(#401,#402,#403,#404,#405));
#223=AXIS2_PLACEMENT_3D('',#406,#407,#408);
#224=EDGE_LOOP('',(#409,#410,#411,#412));
#225=AXIS2_PLACEMENT_3D('',#413,#414,#415);
#226=EDGE_LOOP('',(#416,#417,#418,#419));
#227=AXIS2_PLACEMENT_3D('',#420,#421,#422);
#228=EDGE_LOOP('',(#423,#424,#425,#426));
#229=AXIS2_PLACEMENT_3D('',#427,#428,#429);
#230=EDGE_LOOP('',(#430,#431,#432,#433));
#231=AXIS2_PLACEMENT_3D('',#434,#435,#436);
#232=EDGE_LOOP('',(#437,#438,#439,#440));
#233=AXIS2_PLACEMENT_3D('',#441,#442,#443);
#234=EDGE_LOOP('',(#444,#445,#446,#447));
#235=AXIS2_PLACEMENT_3D('',#448,#449,#450);
#236=EDGE_LOOP('',(#451,#452,#453,#454));
#237=AXIS2_PLACEMENT_3D('',#455,#456,#457);
#238=EDGE_LOOP('',(#458,#459,#460,#461));
#239=AXIS2_PLACEMENT_3D('',#462,#463,#464);
#240=EDGE_LOOP('',(#465,#466,#467,#468));
#241=AXIS2_PLACEMENT_3D('',#469,#470,#471);
#242=EDGE_LOOP('',(#472,#473,#474,#475));
#243=AXIS2_PLACEMENT_3D('',#476,#477,#478);
#244=EDGE_LOOP('',(#479,#480,#481,#482));
#245=AXIS2_PLACEMENT_3D('',#483,#484,#485);
#246=EDGE_LOOP('',(#486,#487,#488,#489));
#247=AXIS2_PLACEMENT_3D('',#490,#491,#492);
#248=EDGE_LOOP('',(#493,#494,#495,#496));
#249=AXIS2_PLACEMENT_3D('',#497,#498,#499);
#250=EDGE_LOOP('',(#500,#501,#502,#503));
#251=AXIS2_PLACEMENT_3D('',#504,#505,#506);
#252=EDGE_LOOP('',(#507,#508));
#253=AXIS2_PLACEMENT_3D('',#509,#510,#511);
#254=EDGE_LOOP('',(#512,#513,#514,#515));
#255=AXIS2_PLACEMENT_3D('',#516,#517,#518);
#256=EDGE_LOOP('',(#519,#520));
#257=AXIS2_PLACEMENT_3D('',#521,#522,#523);
#258=EDGE_LOOP('',(#524,#525,#526,#527,#528));
#259=AXIS2_PLACEMENT_3D('',#529,#530,#531);
#260=EDGE_LOOP('',(#532,#533,#534,#535));
#261=AXIS2_PLACEMENT_3D('',#536,#537,#538);
#262=EDGE_LOOP('',(#539,#540,#541,#542));
#263=EDGE_LOOP('',(#543,#544,#545,#546));
#264=AXIS2_PLACEMENT_3D('',#547,#548,#549);
#265=EDGE_LOOP('',(#550,#551,#552,#553));
#266=AXIS2_PLACEMENT_3D('',#554,#555,#556);
#267=EDGE_LOOP('',(#557,#558,#559,#560));
#268=AXIS2_PLACEMENT_3D('',#561,#562,#563);
#269=EDGE_LOOP('',(#564,#565,#566,#567));
#270=AXIS2_PLACEMENT_3D('',#568,#569,#570);
#271=EDGE_LOOP('',(#571,#572,#573,#574));
#272=AXIS2_PLACEMENT_3D('',#575,#576,#577);
#273=EDGE_LOOP('',(#578,#579,#580,#581));
#274=AXIS2_PLACEMENT_3D('',#582,#583,#584);
#275=EDGE_LOOP('',(#585,#586,#587,#588));
#276=AXIS2_PLACEMENT_3D('',#589,#590,#591);
#277=ORIENTED_EDGE('',*,*,#592,.F.);
#278=ORIENTED_EDGE('',*,*,#593,.F.);
#279=ORIENTED_EDGE('',*,*,#594,.T.);
#280=ORIENTED_EDGE('',*,*,#595,.T.);
#281=CARTESIAN_POINT('',(0.0,0.5,0.0));
#282=DIRECTION('',(0.0,1.0,0.0));
#283=DIRECTION('',(0.0,0.0,-1.0));
#284=ORIENTED_EDGE('',*,*,#596,.T.);
#285=ORIENTED_EDGE('',*,*,#597,.T.);
#286=ORIENTED_EDGE('',*,*,#598,.T.);
#287=ORIENTED_EDGE('',*,*,#599,.F.);
#288=CARTESIAN_POINT('',(0.0,500000.0,-2.0));
#289=DIRECTION('',(0.0,1.0,0.0));
#290=DIRECTION('',(0.0,0.0,-1.0));
#291=ORIENTED_EDGE('',*,*,#600,.T.);
#292=ORIENTED_EDGE('',*,*,#601,.T.);
#293=ORIENTED_EDGE('',*,*,#602,.T.);
#294=ORIENTED_EDGE('',*,*,#603,.F.);
#295=CARTESIAN_POINT('',(0.0,500000.0,2.0));
#296=DIRECTION('',(0.0,1.0,0.0));
#297=DIRECTION('',(0.0,0.0,-1.0));
#298=ORIENTED_EDGE('',*,*,#604,.F.);
#299=ORIENTED_EDGE('',*,*,#605,.T.);
#300=ORIENTED_EDGE('',*,*,#606,.T.);
#301=ORIENTED_EDGE('',*,*,#607,.F.);
#302=CARTESIAN_POINT('',(0.0,0.5,0.0));
#303=DIRECTION('',(0.0,1.0,0.0));
#304=DIRECTION('',(0.0,0.0,-1.0));
#305=ORIENTED_EDGE('',*,*,#608,.F.);
#306=ORIENTED_EDGE('',*,*,#609,.T.);
#307=ORIENTED_EDGE('',*,*,#610,.T.);
#308=ORIENTED_EDGE('',*,*,#611,.T.);
#309=CARTESIAN_POINT('',(0.0,4.5,0.0));
#310=DIRECTION('',(0.0,1.0,0.0));
#311=DIRECTION('',(0.0,0.0,-1.0));
#312=ORIENTED_EDGE('',*,*,#612,.F.);
#313=ORIENTED_EDGE('',*,*,#613,.T.);
#314=ORIENTED_EDGE('',*,*,#614,.T.);
#315=ORIENTED_EDGE('',*,*,#615,.F.);
#316=ORIENTED_EDGE('',*,*,#616,.F.);
#317=ORIENTED_EDGE('',*,*,#617,.T.);
#318=ORIENTED_EDGE('',*,*,#618,.T.);
#319=ORIENTED_EDGE('',*,*,#619,.F.);
#320=ORIENTED_EDGE('',*,*,#620,.F.);
#321=ORIENTED_EDGE('',*,*,#621,.T.);
#322=ORIENTED_EDGE('',*,*,#622,.T.);
#323=ORIENTED_EDGE('',*,*,#623,.F.);
#324=ORIENTED_EDGE('',*,*,#624,.F.);
#325=CARTESIAN_POINT('',(0.0,4.5,0.0));
#326=DIRECTION('',(0.0,1.0,0.0));
#327=DIRECTION('',(0.0,0.0,-1.0));
#328=ORIENTED_EDGE('',*,*,#625,.T.);
#329=ORIENTED_EDGE('',*,*,#626,.T.);
#330=ORIENTED_EDGE('',*,*,#627,.T.);
#331=ORIENTED_EDGE('',*,*,#628,.T.);
#332=ORIENTED_EDGE('',*,*,#629,.T.);
#333=ORIENTED_EDGE('',*,*,#630,.T.);
#334=ORIENTED_EDGE('',*,*,#631,.T.);
#335=ORIENTED_EDGE('',*,*,#604,.T.);
#336=ORIENTED_EDGE('',*,*,#632,.T.);
#337=ORIENTED_EDGE('',*,*,#620,.T.);
#338=ORIENTED_EDGE('',*,*,#633,.T.);
#339=ORIENTED_EDGE('',*,*,#634,.T.);
#340=ORIENTED_EDGE('',*,*,#635,.T.);
#341=ORIENTED_EDGE('',*,*,#616,.T.);
#342=ORIENTED_EDGE('',*,*,#636,.T.);
#343=ORIENTED_EDGE('',*,*,#593,.T.);
#344=ORIENTED_EDGE('',*,*,#637,.T.);
#345=ORIENTED_EDGE('',*,*,#638,.T.);
#346=ORIENTED_EDGE('',*,*,#600,.F.);
#347=ORIENTED_EDGE('',*,*,#639,.F.);
#348=ORIENTED_EDGE('',*,*,#596,.F.);
#349=ORIENTED_EDGE('',*,*,#640,.F.);
#350=CARTESIAN_POINT('',(0.0,0.5,0.0));
#351=DIRECTION('',(0.0,-1.0,0.0));
#352=DIRECTION('',(0.0,0.0,-1.0));
#353=ORIENTED_EDGE('',*,*,#641,.F.);
#354=ORIENTED_EDGE('',*,*,#642,.F.);
#355=ORIENTED_EDGE('',*,*,#643,.F.);
#356=ORIENTED_EDGE('',*,*,#595,.F.);
#357=ORIENTED_EDGE('',*,*,#644,.F.);
#358=ORIENTED_EDGE('',*,*,#614,.F.);
#359=CARTESIAN_POINT('',(0.0,0.0,0.0));
#360=DIRECTION('',(0.0,1.0,0.0));
#361=DIRECTION('',(1.0,0.0,-0.0));
#362=ORIENTED_EDGE('',*,*,#618,.F.);
#363=ORIENTED_EDGE('',*,*,#645,.F.);
#364=ORIENTED_EDGE('',*,*,#646,.F.);
#365=ORIENTED_EDGE('',*,*,#647,.F.);
#366=CARTESIAN_POINT('',(0.0,0.0,0.0));
#367=DIRECTION('',(0.0,1.0,0.0));
#368=DIRECTION('',(1.0,0.0,-0.0));
#369=ORIENTED_EDGE('',*,*,#622,.F.);
#370=ORIENTED_EDGE('',*,*,#648,.F.);
#371=ORIENTED_EDGE('',*,*,#606,.F.);
#372=ORIENTED_EDGE('',*,*,#649,.F.);
#373=ORIENTED_EDGE('',*,*,#650,.F.);
#374=ORIENTED_EDGE('',*,*,#651,.F.);
#375=CARTESIAN_POINT('',(0.0,0.0,0.0));
#376=DIRECTION('',(0.0,1.0,0.0));
#377=DIRECTION('',(1.0,0.0,-0.0));
#378=ORIENTED_EDGE('',*,*,#613,.F.);
#379=ORIENTED_EDGE('',*,*,#652,.F.);
#380=ORIENTED_EDGE('',*,*,#610,.F.);
#381=ORIENTED_EDGE('',*,*,#623,.T.);
#382=ORIENTED_EDGE('',*,*,#651,.T.);
#383=ORIENTED_EDGE('',*,*,#653,.F.);
#384=ORIENTED_EDGE('',*,*,#629,.F.);
#385=ORIENTED_EDGE('',*,*,#654,.T.);
#386=ORIENTED_EDGE('',*,*,#655,.T.);
#387=ORIENTED_EDGE('',*,*,#656,.F.);
#388=ORIENTED_EDGE('',*,*,#625,.F.);
#389=ORIENTED_EDGE('',*,*,#657,.T.);
#390=ORIENTED_EDGE('',*,*,#641,.T.);
#391=CARTESIAN_POINT('',(0.0,4.5,0.0));
#392=DIRECTION('',(0.0,1.0,0.0));
#393=DIRECTION('',(0.0,0.0,-1.0));
#394=ORIENTED_EDGE('',*,*,#609,.F.);
#395=ORIENTED_EDGE('',*,*,#658,.F.);
#396=ORIENTED_EDGE('',*,*,#659,.F.);
#397=ORIENTED_EDGE('',*,*,#624,.T.);
#398=CARTESIAN_POINT('',(0.0,4.5,0.0));
#399=DIRECTION('',(0.0,1.0,0.0));
#400=DIRECTION('',(0.0,0.0,-1.0));
#401=ORIENTED_EDGE('',*,*,#658,.T.);
#402=ORIENTED_EDGE('',*,*,#608,.T.);
#403=ORIENTED_EDGE('',*,*,#660,.T.);
#404=ORIENTED_EDGE('',*,*,#661,.T.);
#405=ORIENTED_EDGE('',*,*,#662,.T.);
#406=CARTESIAN_POINT('',(0.0,4.5,0.0));
#407=DIRECTION('',(0.0,1.0,0.0));
#408=DIRECTION('',(1.0,0.0,-0.0));
#409=ORIENTED_EDGE('',*,*,#655,.F.);
#410=ORIENTED_EDGE('',*,*,#663,.F.);
#411=ORIENTED_EDGE('',*,*,#664,.F.);
#412=ORIENTED_EDGE('',*,*,#665,.F.);
#413=CARTESIAN_POINT('',(0.0,0.0,0.0));
#414=DIRECTION('',(0.0,1.0,0.0));
#415=DIRECTION('',(1.0,0.0,-0.0));
#416=ORIENTED_EDGE('',*,*,#642,.T.);
#417=ORIENTED_EDGE('',*,*,#657,.F.);
#418=ORIENTED_EDGE('',*,*,#638,.F.);
#419=ORIENTED_EDGE('',*,*,#666,.T.);
#420=CARTESIAN_POINT('',(-1.55555555555556,0.5,3.68513865595044));
#421=DIRECTION('',(0.921284663987611,0.0,0.388888888888889));
#422=DIRECTION('',(0.0,-1.0,-0.0));
#423=ORIENTED_EDGE('',*,*,#592,.T.);
#424=ORIENTED_EDGE('',*,*,#643,.T.);
#425=ORIENTED_EDGE('',*,*,#666,.F.);
#426=ORIENTED_EDGE('',*,*,#637,.F.);
#427=CARTESIAN_POINT('',(0.0,0.5,0.0));
#428=DIRECTION('',(0.0,1.0,0.0));
#429=DIRECTION('',(0.0,0.0,-1.0));
#430=ORIENTED_EDGE('',*,*,#644,.T.);
#431=ORIENTED_EDGE('',*,*,#594,.F.);
#432=ORIENTED_EDGE('',*,*,#636,.F.);
#433=ORIENTED_EDGE('',*,*,#615,.T.);
#434=CARTESIAN_POINT('',(1.55555555555559,0.5,3.68513865595043));
#435=DIRECTION('',(-0.921284663987644,0.0,0.388888888888811));
#436=DIRECTION('',(0.0,1.0,0.0));
#437=ORIENTED_EDGE('',*,*,#645,.T.);
#438=ORIENTED_EDGE('',*,*,#617,.F.);
#439=ORIENTED_EDGE('',*,*,#635,.F.);
#440=ORIENTED_EDGE('',*,*,#667,.T.);
#441=CARTESIAN_POINT('',(3.68513865595045,0.5,1.55555555555554));
#442=DIRECTION('',(0.388888888888886,0.0,-0.921284663987612));
#443=DIRECTION('',(0.0,-1.0,0.0));
#444=ORIENTED_EDGE('',*,*,#646,.T.);
#445=ORIENTED_EDGE('',*,*,#667,.F.);
#446=ORIENTED_EDGE('',*,*,#634,.F.);
#447=ORIENTED_EDGE('',*,*,#668,.T.);
#448=CARTESIAN_POINT('',(0.0,0.5,0.0));
#449=DIRECTION('',(0.0,1.0,0.0));
#450=DIRECTION('',(0.0,0.0,-1.0));
#451=ORIENTED_EDGE('',*,*,#647,.T.);
#452=ORIENTED_EDGE('',*,*,#668,.F.);
#453=ORIENTED_EDGE('',*,*,#633,.F.);
#454=ORIENTED_EDGE('',*,*,#619,.T.);
#455=CARTESIAN_POINT('',(3.68513865595044,0.5,-1.55555555555557));
#456=DIRECTION('',(0.388888888888892,0.0,0.92128466398761));
#457=DIRECTION('',(-0.0,-1.0,0.0));
#458=ORIENTED_EDGE('',*,*,#648,.T.);
#459=ORIENTED_EDGE('',*,*,#621,.F.);
#460=ORIENTED_EDGE('',*,*,#632,.F.);
#461=ORIENTED_EDGE('',*,*,#607,.T.);
#462=CARTESIAN_POINT('',(1.55555555555553,0.5,-3.68513865595046));
#463=DIRECTION('',(-0.921284663987614,0.0,-0.388888888888882));
#464=DIRECTION('',(-0.388888888888882,0.0,0.921284663987614));
#465=ORIENTED_EDGE('',*,*,#605,.F.);
#466=ORIENTED_EDGE('',*,*,#631,.F.);
#467=ORIENTED_EDGE('',*,*,#669,.T.);
#468=ORIENTED_EDGE('',*,*,#649,.T.);
#469=CARTESIAN_POINT('',(0.0,0.5,0.0));
#470=DIRECTION('',(0.0,1.0,0.0));
#471=DIRECTION('',(0.0,0.0,-1.0));
#472=ORIENTED_EDGE('',*,*,#650,.T.);
#473=ORIENTED_EDGE('',*,*,#669,.F.);
#474=ORIENTED_EDGE('',*,*,#630,.F.);
#475=ORIENTED_EDGE('',*,*,#653,.T.);
#476=CARTESIAN_POINT('',(-1.55555555555558,0.5,-3.68513865595043));
#477=DIRECTION('',(0.921284663987608,0.0,-0.388888888888895));
#478=DIRECTION('',(0.0,-1.0,0.0));
#479=ORIENTED_EDGE('',*,*,#663,.T.);
#480=ORIENTED_EDGE('',*,*,#654,.F.);
#481=ORIENTED_EDGE('',*,*,#628,.F.);
#482=ORIENTED_EDGE('',*,*,#670,.T.);
#483=CARTESIAN_POINT('',(-3.68513865595046,0.5,-1.55555555555552));
#484=DIRECTION('',(-0.388888888888879,0.0,0.921284663987615));
#485=DIRECTION('',(0.0,1.0,0.0));
#486=ORIENTED_EDGE('',*,*,#664,.T.);
#487=ORIENTED_EDGE('',*,*,#670,.F.);
#488=ORIENTED_EDGE('',*,*,#627,.F.);
#489=ORIENTED_EDGE('',*,*,#671,.T.);
#490=CARTESIAN_POINT('',(0.0,0.5,0.0));
#491=DIRECTION('',(0.0,1.0,0.0));
#492=DIRECTION('',(0.0,0.0,-1.0));
#493=ORIENTED_EDGE('',*,*,#665,.T.);
#494=ORIENTED_EDGE('',*,*,#671,.F.);
#495=ORIENTED_EDGE('',*,*,#626,.F.);
#496=ORIENTED_EDGE('',*,*,#656,.T.);
#497=CARTESIAN_POINT('',(-3.68513865595043,0.5,1.55555555555559));
#498=DIRECTION('',(-0.388888888888898,0.0,-0.921284663987607));
#499=DIRECTION('',(-0.921284663987607,0.0,0.388888888888898));
#500=ORIENTED_EDGE('',*,*,#601,.F.);
#501=ORIENTED_EDGE('',*,*,#639,.T.);
#502=ORIENTED_EDGE('',*,*,#603,.T.);
#503=ORIENTED_EDGE('',*,*,#672,.T.);
#504=CARTESIAN_POINT('',(0.0,500000.0,2.0));
#505=DIRECTION('',(0.0,1.0,0.0));
#506=DIRECTION('',(0.0,0.0,-1.0));
#507=ORIENTED_EDGE('',*,*,#672,.F.);
#508=ORIENTED_EDGE('',*,*,#602,.F.);
#509=CARTESIAN_POINT('',(0.0,-4.5,2.0));
#510=DIRECTION('',(0.0,1.0,0.0));
#511=DIRECTION('',(1.0,0.0,-0.0));
#512=ORIENTED_EDGE('',*,*,#597,.F.);
#513=ORIENTED_EDGE('',*,*,#640,.T.);
#514=ORIENTED_EDGE('',*,*,#599,.T.);
#515=ORIENTED_EDGE('',*,*,#673,.T.);
#516=CARTESIAN_POINT('',(0.0,500000.0,-2.0));
#517=DIRECTION('',(0.0,1.0,0.0));
#518=DIRECTION('',(0.0,0.0,-1.0));
#519=ORIENTED_EDGE('',*,*,#673,.F.);
#520=ORIENTED_EDGE('',*,*,#598,.F.);
#521=CARTESIAN_POINT('',(0.0,-4.5,-2.0));
#522=DIRECTION('',(0.0,-1.0,0.0));
#523=DIRECTION('',(0.0,0.0,-1.0));
#524=ORIENTED_EDGE('',*,*,#674,.F.);
#525=ORIENTED_EDGE('',*,*,#652,.T.);
#526=ORIENTED_EDGE('',*,*,#612,.T.);
#527=ORIENTED_EDGE('',*,*,#675,.F.);
#528=ORIENTED_EDGE('',*,*,#676,.F.);
#529=CARTESIAN_POINT('',(2.5,2.3,3.74165738677394));
#530=DIRECTION('',(0.0,1.0,0.0));
#531=DIRECTION('',(1.0,0.0,-0.0));
#532=ORIENTED_EDGE('',*,*,#662,.F.);
#533=ORIENTED_EDGE('',*,*,#677,.F.);
#534=ORIENTED_EDGE('',*,*,#675,.T.);
#535=ORIENTED_EDGE('',*,*,#659,.T.);
#536=CARTESIAN_POINT('',(2.5,2.3,6.0));
#537=DIRECTION('',(1.0,0.0,-1.92035020042723E-016));
#538=DIRECTION('',(0.0,1.0,0.0));
#539=ORIENTED_EDGE('',*,*,#661,.F.);
#540=ORIENTED_EDGE('',*,*,#678,.F.);
#541=ORIENTED_EDGE('',*,*,#676,.T.);
#542=ORIENTED_EDGE('',*,*,#677,.T.);
#543=ORIENTED_EDGE('',*,*,#679,.F.);
#544=ORIENTED_EDGE('',*,*,#680,.F.);
#545=ORIENTED_EDGE('',*,*,#681,.F.);
#546=ORIENTED_EDGE('',*,*,#682,.F.);
#547=CARTESIAN_POINT('',(2.5,2.3,6.0));
#548=DIRECTION('',(-0.0,0.0,1.0));
#549=DIRECTION('',(1.0,-0.0,0.0));
#550=ORIENTED_EDGE('',*,*,#660,.F.);
#551=ORIENTED_EDGE('',*,*,#611,.F.);
#552=ORIENTED_EDGE('',*,*,#674,.T.);
#553=ORIENTED_EDGE('',*,*,#678,.T.);
#554=CARTESIAN_POINT('',(-2.5,2.3,6.0));
#555=DIRECTION('',(-1.0,0.0,-1.92035020042723E-016));
#556=DIRECTION('',(-1.92035020042723E-016,0.0,1.0));
#557=ORIENTED_EDGE('',*,*,#679,.T.);
#558=ORIENTED_EDGE('',*,*,#683,.F.);
#559=ORIENTED_EDGE('',*,*,#684,.F.);
#560=ORIENTED_EDGE('',*,*,#685,.T.);
#561=CARTESIAN_POINT('',(-1.8,4.0,0.0));
#562=DIRECTION('',(-1.0,-6.19544098563146E-016,0.0));
#563=DIRECTION('',(-6.19544098563146E-016,1.0,0.0));
#564=ORIENTED_EDGE('',*,*,#680,.T.);
#565=ORIENTED_EDGE('',*,*,#685,.F.);
#566=ORIENTED_EDGE('',*,*,#686,.F.);
#567=ORIENTED_EDGE('',*,*,#687,.T.);
#568=CARTESIAN_POINT('',(-1.8,4.0,0.0));
#569=DIRECTION('',(-1.39859920867595E-047,1.0,5.80491037443105E-032));
#570=DIRECTION('',(1.0,0.0,2.4093381610789E-016));
#571=ORIENTED_EDGE('',*,*,#681,.T.);
#572=ORIENTED_EDGE('',*,*,#687,.F.);
#573=ORIENTED_EDGE('',*,*,#688,.F.);
#574=ORIENTED_EDGE('',*,*,#689,.T.);
#575=CARTESIAN_POINT('',(1.8,4.0,0.0));
#576=DIRECTION('',(1.0,0.0,0.0));
#577=DIRECTION('',(0.0,1.0,-0.0));
#578=ORIENTED_EDGE('',*,*,#682,.T.);
#579=ORIENTED_EDGE('',*,*,#689,.F.);
#580=ORIENTED_EDGE('',*,*,#690,.F.);
#581=ORIENTED_EDGE('',*,*,#683,.T.);
#582=CARTESIAN_POINT('',(-1.8,3.3,0.0));
#583=DIRECTION('',(1.20466908053945E-016,-1.0,0.0));
#584=DIRECTION('',(0.0,0.0,-1.0));
#585=ORIENTED_EDGE('',*,*,#684,.T.);
#586=ORIENTED_EDGE('',*,*,#690,.T.);
#587=ORIENTED_EDGE('',*,*,#688,.T.);
#588=ORIENTED_EDGE('',*,*,#686,.T.);
#589=CARTESIAN_POINT('',(-1.8,4.0,0.0));
#590=DIRECTION('',(-0.0,0.0,1.0));
#591=DIRECTION('',(1.0,0.0,0.0));
#592=EDGE_CURVE('',#691,#692,#693,.T.);
#593=EDGE_CURVE('',#694,#691,#695,.T.);
#594=EDGE_CURVE('',#694,#696,#697,.T.);
#595=EDGE_CURVE('',#696,#692,#698,.T.);
#596=EDGE_CURVE('',#699,#700,#701,.T.);
#597=EDGE_CURVE('',#700,#702,#703,.T.);
#598=EDGE_CURVE('',#702,#704,#705,.T.);
#599=EDGE_CURVE('',#699,#704,#706,.T.);
#600=EDGE_CURVE('',#707,#708,#709,.T.);
#601=EDGE_CURVE('',#708,#710,#711,.T.);
#602=EDGE_CURVE('',#710,#712,#713,.T.);
#603=EDGE_CURVE('',#707,#712,#714,.T.);
#604=EDGE_CURVE('',#715,#716,#717,.T.);
#605=EDGE_CURVE('',#715,#718,#719,.T.);
#606=EDGE_CURVE('',#718,#720,#721,.T.);
#607=EDGE_CURVE('',#716,#720,#722,.T.);
#608=EDGE_CURVE('',#723,#724,#725,.T.);
#609=EDGE_CURVE('',#723,#726,#727,.T.);
#610=EDGE_CURVE('',#726,#728,#729,.T.);
#611=EDGE_CURVE('',#728,#724,#730,.T.);
#612=EDGE_CURVE('',#731,#732,#733,.T.);
#613=EDGE_CURVE('',#731,#734,#735,.T.);
#614=EDGE_CURVE('',#734,#736,#737,.T.);
#615=EDGE_CURVE('',#738,#736,#739,.T.);
#616=EDGE_CURVE('',#740,#738,#741,.T.);
#617=EDGE_CURVE('',#740,#742,#743,.T.);
#618=EDGE_CURVE('',#742,#744,#745,.T.);
#619=EDGE_CURVE('',#746,#744,#747,.T.);
#620=EDGE_CURVE('',#748,#746,#749,.T.);
#621=EDGE_CURVE('',#748,#750,#751,.T.);
#622=EDGE_CURVE('',#750,#752,#753,.T.);
#623=EDGE_CURVE('',#726,#752,#754,.T.);
#624=EDGE_CURVE('',#732,#726,#755,.T.);
#625=EDGE_CURVE('',#756,#757,#758,.T.);
#626=EDGE_CURVE('',#757,#759,#760,.T.);
#627=EDGE_CURVE('',#759,#761,#762,.T.);
#628=EDGE_CURVE('',#761,#763,#764,.T.);
#629=EDGE_CURVE('',#763,#765,#766,.T.);
#630=EDGE_CURVE('',#765,#767,#768,.T.);
#631=EDGE_CURVE('',#767,#715,#769,.T.);
#632=EDGE_CURVE('',#716,#748,#770,.T.);
#633=EDGE_CURVE('',#746,#771,#772,.T.);
#634=EDGE_CURVE('',#771,#773,#774,.T.);
#635=EDGE_CURVE('',#773,#740,#775,.T.);
#636=EDGE_CURVE('',#738,#694,#776,.T.);
#637=EDGE_CURVE('',#691,#777,#778,.T.);
#638=EDGE_CURVE('',#777,#756,#779,.T.);
#639=EDGE_CURVE('',#708,#707,#780,.T.);
#640=EDGE_CURVE('',#700,#699,#781,.T.);
#641=EDGE_CURVE('',#782,#734,#783,.T.);
#642=EDGE_CURVE('',#784,#782,#785,.T.);
#643=EDGE_CURVE('',#692,#784,#786,.T.);
#644=EDGE_CURVE('',#736,#696,#787,.T.);
#645=EDGE_CURVE('',#788,#742,#789,.T.);
#646=EDGE_CURVE('',#790,#788,#791,.T.);
#647=EDGE_CURVE('',#744,#790,#792,.T.);
#648=EDGE_CURVE('',#720,#750,#793,.T.);
#649=EDGE_CURVE('',#794,#718,#795,.T.);
#650=EDGE_CURVE('',#796,#794,#797,.T.);
#651=EDGE_CURVE('',#752,#796,#798,.T.);
#652=EDGE_CURVE('',#728,#731,#799,.T.);
#653=EDGE_CURVE('',#765,#796,#800,.T.);
#654=EDGE_CURVE('',#763,#801,#802,.T.);
#655=EDGE_CURVE('',#801,#803,#804,.T.);
#656=EDGE_CURVE('',#757,#803,#805,.T.);
#657=EDGE_CURVE('',#756,#782,#806,.T.);
#658=EDGE_CURVE('',#807,#723,#808,.T.);
#659=EDGE_CURVE('',#732,#807,#809,.T.);
#660=EDGE_CURVE('',#724,#810,#811,.T.);
#661=EDGE_CURVE('',#810,#812,#813,.T.);
#662=EDGE_CURVE('',#812,#807,#814,.T.);
#663=EDGE_CURVE('',#815,#801,#816,.T.);
#664=EDGE_CURVE('',#817,#815,#818,.T.);
#665=EDGE_CURVE('',#803,#817,#819,.T.);
#666=EDGE_CURVE('',#777,#784,#820,.T.);
#667=EDGE_CURVE('',#773,#788,#821,.T.);
#668=EDGE_CURVE('',#771,#790,#822,.T.);
#669=EDGE_CURVE('',#767,#794,#823,.T.);
#670=EDGE_CURVE('',#761,#815,#824,.T.);
#671=EDGE_CURVE('',#759,#817,#825,.T.);
#672=EDGE_CURVE('',#712,#710,#826,.T.);
#673=EDGE_CURVE('',#704,#702,#827,.T.);
#674=EDGE_CURVE('',#728,#828,#829,.T.);
#675=EDGE_CURVE('',#830,#732,#831,.T.);
#676=EDGE_CURVE('',#828,#830,#832,.T.);
#677=EDGE_CURVE('',#830,#812,#833,.T.);
#678=EDGE_CURVE('',#828,#810,#834,.T.);
#679=EDGE_CURVE('',#835,#836,#837,.T.);
#680=EDGE_CURVE('',#838,#835,#839,.T.);
#681=EDGE_CURVE('',#840,#838,#841,.T.);
#682=EDGE_CURVE('',#836,#840,#842,.T.);
#683=EDGE_CURVE('',#843,#836,#844,.T.);
#684=EDGE_CURVE('',#845,#843,#846,.T.);
#685=EDGE_CURVE('',#845,#835,#847,.T.);
#686=EDGE_CURVE('',#848,#845,#849,.T.);
#687=EDGE_CURVE('',#848,#838,#850,.T.);
#688=EDGE_CURVE('',#851,#848,#852,.T.);
#689=EDGE_CURVE('',#851,#840,#853,.T.);
#690=EDGE_CURVE('',#843,#851,#854,.T.);
#691=VERTEX_POINT('',#855);
#692=VERTEX_POINT('',#856);
#693=LINE('',#857,#858);
#694=VERTEX_POINT('',#859);
#695=CIRCLE('',#860,4.0);
#696=VERTEX_POINT('',#861);
#697=LINE('',#862,#863);
#698=CIRCLE('',#864,4.0);
#699=VERTEX_POINT('',#865);
#700=VERTEX_POINT('',#866);
#701=CIRCLE('',#867,0.3);
#702=VERTEX_POINT('',#868);
#703=LINE('',#869,#870);
#704=VERTEX_POINT('',#871);
#705=CIRCLE('',#872,0.3);
#706=LINE('',#873,#874);
#707=VERTEX_POINT('',#875);
#708=VERTEX_POINT('',#876);
#709=CIRCLE('',#877,0.3);
#710=VERTEX_POINT('',#878);
#711=LINE('',#879,#880);
#712=VERTEX_POINT('',#881);
#713=CIRCLE('',#882,0.3);
#714=LINE('',#883,#884);
#715=VERTEX_POINT('',#885);
#716=VERTEX_POINT('',#886);
#717=CIRCLE('',#887,4.0);
#718=VERTEX_POINT('',#888);
#719=LINE('',#889,#890);
#720=VERTEX_POINT('',#891);
#721=CIRCLE('',#892,4.0);
#722=LINE('',#893,#894);
#723=VERTEX_POINT('',#895);
#724=VERTEX_POINT('',#896);
#725=CIRCLE('',#897,4.5);
#726=VERTEX_POINT('',#898);
#727=LINE('',#899,#900);
#728=VERTEX_POINT('',#901);
#729=CIRCLE('',#902,4.5);
#730=LINE('',#903,#904);
#731=VERTEX_POINT('',#905);
#732=VERTEX_POINT('',#906);
#733=CIRCLE('',#907,4.5);
#734=VERTEX_POINT('',#908);
#735=LINE('',#909,#910);
#736=VERTEX_POINT('',#911);
#737=CIRCLE('',#912,4.5);
#738=VERTEX_POINT('',#913);
#739=LINE('',#914,#915);
#740=VERTEX_POINT('',#916);
#741=CIRCLE('',#917,4.5);
#742=VERTEX_POINT('',#918);
#743=LINE('',#919,#920);
#744=VERTEX_POINT('',#921);
#745=CIRCLE('',#922,4.5);
#746=VERTEX_POINT('',#923);
#747=LINE('',#924,#925);
#748=VERTEX_POINT('',#926);
#749=CIRCLE('',#927,4.5);
#750=VERTEX_POINT('',#928);
#751=LINE('',#929,#930);
#752=VERTEX_POINT('',#931);
#753=CIRCLE('',#932,4.5);
#754=LINE('',#933,#934);
#755=CIRCLE('',#935,4.5);
#756=VERTEX_POINT('',#936);
#757=VERTEX_POINT('',#937);
#758=CIRCLE('',#938,4.5);
#759=VERTEX_POINT('',#939);
#760=LINE('',#940,#941);
#761=VERTEX_POINT('',#942);
#762=CIRCLE('',#943,4.0);
#763=VERTEX_POINT('',#944);
#764=LINE('',#945,#946);
#765=VERTEX_POINT('',#947);
#766=CIRCLE('',#948,4.5);
#767=VERTEX_POINT('',#949);
#768=LINE('',#950,#951);
#769=CIRCLE('',#952,4.0);
#770=LINE('',#953,#954);
#771=VERTEX_POINT('',#955);
#772=LINE('',#956,#957);
#773=VERTEX_POINT('',#958);
#774=CIRCLE('',#959,4.0);
#775=LINE('',#960,#961);
#776=LINE('',#962,#963);
#777=VERTEX_POINT('',#964);
#778=CIRCLE('',#965,4.0);
#779=LINE('',#966,#967);
#780=CIRCLE('',#968,0.3);
#781=CIRCLE('',#969,0.3);
#782=VERTEX_POINT('',#970);
#783=CIRCLE('',#971,4.5);
#784=VERTEX_POINT('',#972);
#785=LINE('',#973,#974);
#786=CIRCLE('',#975,4.0);
#787=LINE('',#976,#977);
#788=VERTEX_POINT('',#978);
#789=LINE('',#979,#980);
#790=VERTEX_POINT('',#981);
#791=CIRCLE('',#982,4.0);
#792=LINE('',#983,#984);
#793=LINE('',#985,#986);
#794=VERTEX_POINT('',#987);
#795=CIRCLE('',#988,4.0);
#796=VERTEX_POINT('',#989);
#797=LINE('',#990,#991);
#798=CIRCLE('',#992,4.5);
#799=CIRCLE('',#993,4.5);
#800=LINE('',#994,#995);
#801=VERTEX_POINT('',#996);
#802=LINE('',#997,#998);
#803=VERTEX_POINT('',#999);
#804=CIRCLE('',#1000,4.5);
#805=LINE('',#1001,#1002);
#806=LINE('',#1003,#1004);
#807=VERTEX_POINT('',#1005);
#808=CIRCLE('',#1006,4.5);
#809=LINE('',#1007,#1008);
#810=VERTEX_POINT('',#1009);
#811=LINE('',#1010,#1011);
#812=VERTEX_POINT('',#1012);
#813=LINE('',#1013,#1014);
#814=LINE('',#1015,#1016);
#815=VERTEX_POINT('',#1017);
#816=LINE('',#1018,#1019);
#817=VERTEX_POINT('',#1020);
#818=CIRCLE('',#1021,4.0);
#819=LINE('',#1022,#1023);
#820=LINE('',#1024,#1025);
#821=LINE('',#1026,#1027);
#822=LINE('',#1028,#1029);
#823=LINE('',#1030,#1031);
#824=LINE('',#1032,#1033);
#825=LINE('',#1034,#1035);
#826=CIRCLE('',#1036,0.3);
#827=CIRCLE('',#1037,0.3);
#828=VERTEX_POINT('',#1038);
#829=LINE('',#1039,#1040);
#830=VERTEX_POINT('',#1041);
#831=LINE('',#1042,#1043);
#832=LINE('',#1044,#1045);
#833=LINE('',#1046,#1047);
#834=LINE('',#1048,#1049);
#835=VERTEX_POINT('',#1050);
#836=VERTEX_POINT('',#1051);
#837=LINE('',#1052,#1053);
#838=VERTEX_POINT('',#1054);
#839=LINE('',#1055,#1056);
#840=VERTEX_POINT('',#1057);
#841=LINE('',#1058,#1059);
#842=LINE('',#1060,#1061);
#843=VERTEX_POINT('',#1062);
#844=LINE('',#1063,#1064);
#845=VERTEX_POINT('',#1065);
#846=LINE('',#1066,#1067);
#847=LINE('',#1068,#1069);
#848=VERTEX_POINT('',#1070);
#849=LINE('',#1071,#1072);
#850=LINE('',#1073,#1074);
#851=VERTEX_POINT('',#1075);
#852=LINE('',#1076,#1077);
#853=LINE('',#1078,#1079);
#854=LINE('',#1080,#1081);
#855=CARTESIAN_POINT('',(-4.89842541528952E-016,0.5,4.0));
#856=CARTESIAN_POINT('',(-4.89842541528952E-016,0.0,4.0));
#857=CARTESIAN_POINT('',(-4.89842541528952E-016,0.25,4.0));
#858=VECTOR('',#1082,1.0);
#859=CARTESIAN_POINT('',(1.55555555555559,0.5,3.68513865595043));
#860=AXIS2_PLACEMENT_3D('',#1083,#1084,#1085);
#861=CARTESIAN_POINT('',(1.55555555555559,0.0,3.68513865595043));
#862=CARTESIAN_POINT('',(1.55555555555559,0.5,3.68513865595043));
#863=VECTOR('',#1086,1000.0);
#864=AXIS2_PLACEMENT_3D('',#1087,#1088,#1089);
#865=CARTESIAN_POINT('',(0.0,0.499999999988177,-2.3));
#866=CARTESIAN_POINT('',(3.67394039744206E-017,0.499999999988177,-1.7));
#867=AXIS2_PLACEMENT_3D('',#1090,#1091,#1092);
#868=CARTESIAN_POINT('',(3.67394039744206E-017,-4.5,-1.7));
#869=CARTESIAN_POINT('',(3.67394039744206E-017,500000.0,-1.7));
#870=VECTOR('',#1093,1000.0);
#871=CARTESIAN_POINT('',(0.0,-4.5,-2.3));
#872=AXIS2_PLACEMENT_3D('',#1094,#1095,#1096);
#873=CARTESIAN_POINT('',(0.0,500000.0,-2.3));
#874=VECTOR('',#1097,1000.0);
#875=CARTESIAN_POINT('',(0.0,0.499999999988177,1.7));
#876=CARTESIAN_POINT('',(3.67394039744206E-017,0.499999999988177,2.3));
#877=AXIS2_PLACEMENT_3D('',#1098,#1099,#1100);
#878=CARTESIAN_POINT('',(3.67394039744206E-017,-4.5,2.3));
#879=CARTESIAN_POINT('',(3.67394039744206E-017,500000.0,2.3));
#880=VECTOR('',#1101,1000.0);
#881=CARTESIAN_POINT('',(0.0,-4.5,1.7));
#882=AXIS2_PLACEMENT_3D('',#1102,#1103,#1104);
#883=CARTESIAN_POINT('',(0.0,500000.0,1.7));
#884=VECTOR('',#1105,1000.0);
#885=CARTESIAN_POINT('',(0.0,0.5,-4.0));
#886=CARTESIAN_POINT('',(1.55555555555553,0.5,-3.68513865595046));
#887=AXIS2_PLACEMENT_3D('',#1106,#1107,#1108);
#888=CARTESIAN_POINT('',(0.0,0.0,-4.0));
#889=CARTESIAN_POINT('',(0.0,0.5,-4.0));
#890=VECTOR('',#1109,1000.0);
#891=CARTESIAN_POINT('',(1.55555555555553,0.0,-3.68513865595046));
#892=AXIS2_PLACEMENT_3D('',#1110,#1111,#1112);
#893=CARTESIAN_POINT('',(1.55555555555553,0.5,-3.68513865595046));
#894=VECTOR('',#1113,1000.0);
#895=CARTESIAN_POINT('',(0.0,4.5,-4.5));
#896=CARTESIAN_POINT('',(-2.5,4.5,3.74165738677394));
#897=AXIS2_PLACEMENT_3D('',#1114,#1115,#1116);
#898=CARTESIAN_POINT('',(0.0,2.3,-4.5));
#899=CARTESIAN_POINT('',(0.0,4.5,-4.5));
#900=VECTOR('',#1117,1000.0);
#901=CARTESIAN_POINT('',(-2.5,2.3,3.74165738677394));
#902=AXIS2_PLACEMENT_3D('',#1118,#1119,#1120);
#903=CARTESIAN_POINT('',(-2.5,2.3,3.74165738677394));
#904=VECTOR('',#1121,1000.0);
#905=CARTESIAN_POINT('',(5.51091059616309E-016,2.3,4.5));
#906=CARTESIAN_POINT('',(2.5,2.3,3.74165738677394));
#907=AXIS2_PLACEMENT_3D('',#1122,#1123,#1124);
#908=CARTESIAN_POINT('',(5.51091059616309E-016,0.0,4.5));
#909=CARTESIAN_POINT('',(5.51091059616309E-016,4.5,4.5));
#910=VECTOR('',#1125,1000.0);
#911=CARTESIAN_POINT('',(1.75,0.0,4.14578098794425));
#912=AXIS2_PLACEMENT_3D('',#1126,#1127,#1128);
#913=CARTESIAN_POINT('',(1.75,0.5,4.14578098794425));
#914=CARTESIAN_POINT('',(1.75,0.5,4.14578098794425));
#915=VECTOR('',#1129,1000.0);
#916=CARTESIAN_POINT('',(4.14578098794426,0.5,1.74999999999999));
#917=AXIS2_PLACEMENT_3D('',#1130,#1131,#1132);
#918=CARTESIAN_POINT('',(4.14578098794426,0.0,1.74999999999999));
#919=CARTESIAN_POINT('',(4.14578098794426,0.5,1.74999999999999));
#920=VECTOR('',#1133,1000.0);
#921=CARTESIAN_POINT('',(4.14578098794424,0.0,-1.75000000000001));
#922=AXIS2_PLACEMENT_3D('',#1134,#1135,#1136);
#923=CARTESIAN_POINT('',(4.14578098794424,0.5,-1.75000000000001));
#924=CARTESIAN_POINT('',(4.14578098794424,0.5,-1.75000000000001));
#925=VECTOR('',#1137,1000.0);
#926=CARTESIAN_POINT('',(1.74999999999997,0.5,-4.14578098794426));
#927=AXIS2_PLACEMENT_3D('',#1138,#1139,#1140);
#928=CARTESIAN_POINT('',(1.74999999999997,0.0,-4.14578098794426));
#929=CARTESIAN_POINT('',(1.74999999999997,0.5,-4.14578098794426));
#930=VECTOR('',#1141,1000.0);
#931=CARTESIAN_POINT('',(0.0,0.0,-4.5));
#932=AXIS2_PLACEMENT_3D('',#1142,#1143,#1144);
#933=CARTESIAN_POINT('',(0.0,4.5,-4.5));
#934=VECTOR('',#1145,1000.0);
#935=AXIS2_PLACEMENT_3D('',#1146,#1147,#1148);
#936=CARTESIAN_POINT('',(-1.75,0.5,4.14578098794425));
#937=CARTESIAN_POINT('',(-4.14578098794423,0.5,1.75000000000004));
#938=AXIS2_PLACEMENT_3D('',#1149,#1150,#1151);
#939=CARTESIAN_POINT('',(-3.68513865595043,0.5,1.55555555555559));
#940=CARTESIAN_POINT('',(-3.68513865595043,0.5,1.55555555555559));
#941=VECTOR('',#1152,1000.0);
#942=CARTESIAN_POINT('',(-3.68513865595046,0.5,-1.55555555555552));
#943=AXIS2_PLACEMENT_3D('',#1153,#1154,#1155);
#944=CARTESIAN_POINT('',(-4.14578098794427,0.5,-1.74999999999995));
#945=CARTESIAN_POINT('',(-3.68513865595046,0.5,-1.55555555555552));
#946=VECTOR('',#1156,1000.0);
#947=CARTESIAN_POINT('',(-1.75000000000003,0.5,-4.14578098794424));
#948=AXIS2_PLACEMENT_3D('',#1157,#1158,#1159);
#949=CARTESIAN_POINT('',(-1.55555555555558,0.5,-3.68513865595043));
#950=CARTESIAN_POINT('',(-1.55555555555558,0.5,-3.68513865595043));
#951=VECTOR('',#1160,1000.0);
#952=AXIS2_PLACEMENT_3D('',#1161,#1162,#1163);
#953=CARTESIAN_POINT('',(1.55555555555553,0.5,-3.68513865595046));
#954=VECTOR('',#1164,1000.0);
#955=CARTESIAN_POINT('',(3.68513865595044,0.5,-1.55555555555557));
#956=CARTESIAN_POINT('',(3.68513865595044,0.5,-1.55555555555557));
#957=VECTOR('',#1165,1000.0);
#958=CARTESIAN_POINT('',(3.68513865595045,0.5,1.55555555555554));
#959=AXIS2_PLACEMENT_3D('',#1166,#1167,#1168);
#960=CARTESIAN_POINT('',(3.68513865595045,0.5,1.55555555555554));
#961=VECTOR('',#1169,1000.0);
#962=CARTESIAN_POINT('',(1.55555555555559,0.5,3.68513865595043));
#963=VECTOR('',#1170,1000.0);
#964=CARTESIAN_POINT('',(-1.55555555555556,0.5,3.68513865595044));
#965=AXIS2_PLACEMENT_3D('',#1171,#1172,#1173);
#966=CARTESIAN_POINT('',(-1.55555555555556,0.5,3.68513865595044));
#967=VECTOR('',#1174,1000.0);
#968=AXIS2_PLACEMENT_3D('',#1175,#1176,#1177);
#969=AXIS2_PLACEMENT_3D('',#1178,#1179,#1180);
#970=CARTESIAN_POINT('',(-1.75,0.0,4.14578098794425));
#971=AXIS2_PLACEMENT_3D('',#1181,#1182,#1183);
#972=CARTESIAN_POINT('',(-1.55555555555556,0.0,3.68513865595044));
#973=CARTESIAN_POINT('',(-1.55555555555556,0.0,3.68513865595044));
#974=VECTOR('',#1184,1000.0);
#975=AXIS2_PLACEMENT_3D('',#1185,#1186,#1187);
#976=CARTESIAN_POINT('',(1.55555555555559,0.0,3.68513865595043));
#977=VECTOR('',#1188,1000.0);
#978=CARTESIAN_POINT('',(3.68513865595045,0.0,1.55555555555554));
#979=CARTESIAN_POINT('',(3.68513865595045,0.0,1.55555555555554));
#980=VECTOR('',#1189,1000.0);
#981=CARTESIAN_POINT('',(3.68513865595044,0.0,-1.55555555555557));
#982=AXIS2_PLACEMENT_3D('',#1190,#1191,#1192);
#983=CARTESIAN_POINT('',(3.68513865595044,0.0,-1.55555555555557));
#984=VECTOR('',#1193,1000.0);
#985=CARTESIAN_POINT('',(1.55555555555553,0.0,-3.68513865595046));
#986=VECTOR('',#1194,1000.0);
#987=CARTESIAN_POINT('',(-1.55555555555558,0.0,-3.68513865595043));
#988=AXIS2_PLACEMENT_3D('',#1195,#1196,#1197);
#989=CARTESIAN_POINT('',(-1.75000000000003,0.0,-4.14578098794424));
#990=CARTESIAN_POINT('',(-1.55555555555558,0.0,-3.68513865595043));
#991=VECTOR('',#1198,1000.0);
#992=AXIS2_PLACEMENT_3D('',#1199,#1200,#1201);
#993=AXIS2_PLACEMENT_3D('',#1202,#1203,#1204);
#994=CARTESIAN_POINT('',(-1.75000000000003,0.5,-4.14578098794424));
#995=VECTOR('',#1205,1000.0);
#996=CARTESIAN_POINT('',(-4.14578098794427,0.0,-1.74999999999995));
#997=CARTESIAN_POINT('',(-4.14578098794427,0.5,-1.74999999999995));
#998=VECTOR('',#1206,1000.0);
#999=CARTESIAN_POINT('',(-4.14578098794423,0.0,1.75000000000004));
#1000=AXIS2_PLACEMENT_3D('',#1207,#1208,#1209);
#1001=CARTESIAN_POINT('',(-4.14578098794423,0.5,1.75000000000004));
#1002=VECTOR('',#1210,1000.0);
#1003=CARTESIAN_POINT('',(-1.75,0.5,4.14578098794425));
#1004=VECTOR('',#1211,1000.0);
#1005=CARTESIAN_POINT('',(2.5,4.5,3.74165738677394));
#1006=AXIS2_PLACEMENT_3D('',#1212,#1213,#1214);
#1007=CARTESIAN_POINT('',(2.5,2.3,3.74165738677394));
#1008=VECTOR('',#1215,1000.0);
#1009=CARTESIAN_POINT('',(-2.5,4.5,6.0));
#1010=CARTESIAN_POINT('',(-2.5,4.5,6.0));
#1011=VECTOR('',#1216,1000.0);
#1012=CARTESIAN_POINT('',(2.5,4.5,6.0));
#1013=CARTESIAN_POINT('',(2.5,4.5,6.0));
#1014=VECTOR('',#1217,1000.0);
#1015=CARTESIAN_POINT('',(2.5,4.5,6.0));
#1016=VECTOR('',#1218,1000.0);
#1017=CARTESIAN_POINT('',(-3.68513865595046,0.0,-1.55555555555552));
#1018=CARTESIAN_POINT('',(-3.68513865595046,0.0,-1.55555555555552));
#1019=VECTOR('',#1219,1000.0);
#1020=CARTESIAN_POINT('',(-3.68513865595043,0.0,1.55555555555559));
#1021=AXIS2_PLACEMENT_3D('',#1220,#1221,#1222);
#1022=CARTESIAN_POINT('',(-3.68513865595043,0.0,1.55555555555559));
#1023=VECTOR('',#1223,1000.0);
#1024=CARTESIAN_POINT('',(-1.55555555555556,0.5,3.68513865595044));
#1025=VECTOR('',#1224,1000.0);
#1026=CARTESIAN_POINT('',(3.68513865595045,0.5,1.55555555555554));
#1027=VECTOR('',#1225,1000.0);
#1028=CARTESIAN_POINT('',(3.68513865595044,0.5,-1.55555555555557));
#1029=VECTOR('',#1226,1000.0);
#1030=CARTESIAN_POINT('',(-1.55555555555558,0.5,-3.68513865595043));
#1031=VECTOR('',#1227,1000.0);
#1032=CARTESIAN_POINT('',(-3.68513865595046,0.5,-1.55555555555552));
#1033=VECTOR('',#1228,1000.0);
#1034=CARTESIAN_POINT('',(-3.68513865595043,0.5,1.55555555555559));
#1035=VECTOR('',#1229,1000.0);
#1036=AXIS2_PLACEMENT_3D('',#1230,#1231,#1232);
#1037=AXIS2_PLACEMENT_3D('',#1233,#1234,#1235);
#1038=CARTESIAN_POINT('',(-2.5,2.3,6.0));
#1039=CARTESIAN_POINT('',(-2.5,2.3,6.0));
#1040=VECTOR('',#1236,1000.0);
#1041=CARTESIAN_POINT('',(2.5,2.3,6.0));
#1042=CARTESIAN_POINT('',(2.5,2.3,6.0));
#1043=VECTOR('',#1237,1000.0);
#1044=CARTESIAN_POINT('',(2.5,2.3,6.0));
#1045=VECTOR('',#1238,1000.0);
#1046=CARTESIAN_POINT('',(2.5,2.3,6.0));
#1047=VECTOR('',#1239,1000.0);
#1048=CARTESIAN_POINT('',(-2.5,2.3,6.0));
#1049=VECTOR('',#1240,1000.0);
#1050=CARTESIAN_POINT('',(-1.8,4.0,6.0));
#1051=CARTESIAN_POINT('',(-1.8,3.3,6.0));
#1052=CARTESIAN_POINT('',(-1.8,4.0,6.0));
#1053=VECTOR('',#1241,1000.0);
#1054=CARTESIAN_POINT('',(1.8,4.0,6.0));
#1055=CARTESIAN_POINT('',(-1.8,4.0,6.0));
#1056=VECTOR('',#1242,1000.0);
#1057=CARTESIAN_POINT('',(1.8,3.3,6.0));
#1058=CARTESIAN_POINT('',(1.8,4.0,6.0));
#1059=VECTOR('',#1243,1000.0);
#1060=CARTESIAN_POINT('',(-1.8,3.3,6.0));
#1061=VECTOR('',#1244,1000.0);
#1062=CARTESIAN_POINT('',(-1.8,3.3,0.0));
#1063=CARTESIAN_POINT('',(-1.8,3.3,0.0));
#1064=VECTOR('',#1245,1000.0);
#1065=CARTESIAN_POINT('',(-1.8,4.0,0.0));
#1066=CARTESIAN_POINT('',(-1.8,4.0,0.0));
#1067=VECTOR('',#1246,1000.0);
#1068=CARTESIAN_POINT('',(-1.8,4.0,0.0));
#1069=VECTOR('',#1247,1000.0);
#1070=CARTESIAN_POINT('',(1.8,4.0,0.0));
#1071=CARTESIAN_POINT('',(-1.8,4.0,0.0));
#1072=VECTOR('',#1248,1000.0);
#1073=CARTESIAN_POINT('',(1.8,4.0,0.0));
#1074=VECTOR('',#1249,1000.0);
#1075=CARTESIAN_POINT('',(1.8,3.3,0.0));
#1076=CARTESIAN_POINT('',(1.8,4.0,0.0));
#1077=VECTOR('',#1250,1000.0);
#1078=CARTESIAN_POINT('',(1.8,3.3,0.0));
#1079=VECTOR('',#1251,1000.0);
#1080=CARTESIAN_POINT('',(-1.8,3.3,0.0));
#1081=VECTOR('',#1252,1000.0);
#1082=DIRECTION('',(-0.0,-1.0,0.0));
#1083=CARTESIAN_POINT('',(0.0,0.5,0.0));
#1084=DIRECTION('',(0.0,-1.0,0.0));
#1085=DIRECTION('',(0.0,0.0,-1.0));
#1086=DIRECTION('',(-0.0,-1.0,-0.0));
#1087=CARTESIAN_POINT('',(0.0,0.0,0.0));
#1088=DIRECTION('',(0.0,-1.0,0.0));
#1089=DIRECTION('',(0.0,0.0,-1.0));
#1090=CARTESIAN_POINT('',(0.0,0.499999999988177,-2.0));
#1091=DIRECTION('',(0.0,-1.0,0.0));
#1092=DIRECTION('',(0.0,0.0,-1.0));
#1093=DIRECTION('',(-0.0,-1.0,-0.0));
#1094=CARTESIAN_POINT('',(0.0,-4.5,-2.0));
#1095=DIRECTION('',(0.0,1.0,0.0));
#1096=DIRECTION('',(0.0,0.0,-1.0));
#1097=DIRECTION('',(-0.0,-1.0,-0.0));
#1098=CARTESIAN_POINT('',(0.0,0.499999999988177,2.0));
#1099=DIRECTION('',(0.0,-1.0,0.0));
#1100=DIRECTION('',(0.0,0.0,-1.0));
#1101=DIRECTION('',(-0.0,-1.0,-0.0));
#1102=CARTESIAN_POINT('',(0.0,-4.5,2.0));
#1103=DIRECTION('',(0.0,1.0,0.0));
#1104=DIRECTION('',(0.0,0.0,1.0));
#1105=DIRECTION('',(-0.0,-1.0,-0.0));
#1106=CARTESIAN_POINT('',(0.0,0.5,0.0));
#1107=DIRECTION('',(0.0,-1.0,0.0));
#1108=DIRECTION('',(0.0,0.0,-1.0));
#1109=DIRECTION('',(-0.0,-1.0,-0.0));
#1110=CARTESIAN_POINT('',(0.0,0.0,0.0));
#1111=DIRECTION('',(0.0,-1.0,0.0));
#1112=DIRECTION('',(0.0,0.0,-1.0));
#1113=DIRECTION('',(-0.0,-1.0,-0.0));
#1114=CARTESIAN_POINT('',(0.0,4.5,0.0));
#1115=DIRECTION('',(0.0,1.0,0.0));
#1116=DIRECTION('',(0.0,0.0,1.0));
#1117=DIRECTION('',(-0.0,-1.0,-0.0));
#1118=CARTESIAN_POINT('',(0.0,2.3,0.0));
#1119=DIRECTION('',(0.0,1.0,0.0));
#1120=DIRECTION('',(0.0,0.0,1.0));
#1121=DIRECTION('',(0.0,1.0,0.0));
#1122=CARTESIAN_POINT('',(0.0,2.3,0.0));
#1123=DIRECTION('',(0.0,1.0,0.0));
#1124=DIRECTION('',(0.0,0.0,1.0));
#1125=DIRECTION('',(-0.0,-1.0,-0.0));
#1126=CARTESIAN_POINT('',(0.0,0.0,0.0));
#1127=DIRECTION('',(0.0,1.0,0.0));
#1128=DIRECTION('',(0.0,0.0,1.0));
#1129=DIRECTION('',(-0.0,-1.0,-0.0));
#1130=CARTESIAN_POINT('',(0.0,0.5,0.0));
#1131=DIRECTION('',(0.0,-1.0,0.0));
#1132=DIRECTION('',(0.0,0.0,-1.0));
#1133=DIRECTION('',(-0.0,-1.0,-0.0));
#1134=CARTESIAN_POINT('',(0.0,0.0,0.0));
#1135=DIRECTION('',(0.0,1.0,0.0));
#1136=DIRECTION('',(0.0,0.0,1.0));
#1137=DIRECTION('',(-0.0,-1.0,-0.0));
#1138=CARTESIAN_POINT('',(0.0,0.5,0.0));
#1139=DIRECTION('',(0.0,-1.0,0.0));
#1140=DIRECTION('',(0.0,0.0,-1.0));
#1141=DIRECTION('',(-0.0,-1.0,-0.0));
#1142=CARTESIAN_POINT('',(0.0,0.0,0.0));
#1143=DIRECTION('',(0.0,1.0,0.0));
#1144=DIRECTION('',(0.0,0.0,1.0));
#1145=DIRECTION('',(-0.0,-1.0,-0.0));
#1146=CARTESIAN_POINT('',(0.0,2.3,0.0));
#1147=DIRECTION('',(0.0,1.0,0.0));
#1148=DIRECTION('',(0.0,0.0,1.0));
#1149=CARTESIAN_POINT('',(0.0,0.5,0.0));
#1150=DIRECTION('',(0.0,-1.0,0.0));
#1151=DIRECTION('',(0.0,0.0,-1.0));
#1152=DIRECTION('',(0.921284663987607,-0.0,-0.388888888888898));
#1153=CARTESIAN_POINT('',(0.0,0.5,0.0));
#1154=DIRECTION('',(0.0,-1.0,0.0));
#1155=DIRECTION('',(0.0,0.0,-1.0));
#1156=DIRECTION('',(-0.921284663987615,0.0,-0.38888888888888));
#1157=CARTESIAN_POINT('',(0.0,0.5,0.0));
#1158=DIRECTION('',(0.0,-1.0,0.0));
#1159=DIRECTION('',(0.0,0.0,-1.0));
#1160=DIRECTION('',(0.388888888888895,-0.0,0.921284663987608));
#1161=CARTESIAN_POINT('',(0.0,0.5,0.0));
#1162=DIRECTION('',(0.0,-1.0,0.0));
#1163=DIRECTION('',(0.0,0.0,-1.0));
#1164=DIRECTION('',(0.388888888888882,0.0,-0.921284663987614));
#1165=DIRECTION('',(-0.92128466398761,-0.0,0.388888888888892));
#1166=CARTESIAN_POINT('',(0.0,0.5,0.0));
#1167=DIRECTION('',(0.0,-1.0,0.0));
#1168=DIRECTION('',(0.0,0.0,-1.0));
#1169=DIRECTION('',(0.921284663987612,0.0,0.388888888888886));
#1170=DIRECTION('',(-0.388888888888811,-0.0,-0.921284663987644));
#1171=CARTESIAN_POINT('',(0.0,0.5,0.0));
#1172=DIRECTION('',(0.0,-1.0,0.0));
#1173=DIRECTION('',(0.0,0.0,-1.0));
#1174=DIRECTION('',(-0.388888888888889,0.0,0.921284663987611));
#1175=CARTESIAN_POINT('',(0.0,0.499999999988177,2.0));
#1176=DIRECTION('',(0.0,-1.0,0.0));
#1177=DIRECTION('',(0.0,0.0,-1.0));
#1178=CARTESIAN_POINT('',(0.0,0.499999999988177,-2.0));
#1179=DIRECTION('',(0.0,-1.0,0.0));
#1180=DIRECTION('',(0.0,0.0,-1.0));
#1181=CARTESIAN_POINT('',(0.0,0.0,0.0));
#1182=DIRECTION('',(0.0,1.0,0.0));
#1183=DIRECTION('',(0.0,0.0,1.0));
#1184=DIRECTION('',(-0.388888888888889,0.0,0.921284663987611));
#1185=CARTESIAN_POINT('',(0.0,0.0,0.0));
#1186=DIRECTION('',(0.0,-1.0,0.0));
#1187=DIRECTION('',(0.0,0.0,-1.0));
#1188=DIRECTION('',(-0.388888888888811,-0.0,-0.921284663987644));
#1189=DIRECTION('',(0.921284663987612,0.0,0.388888888888886));
#1190=CARTESIAN_POINT('',(0.0,0.0,0.0));
#1191=DIRECTION('',(0.0,-1.0,0.0));
#1192=DIRECTION('',(0.0,0.0,-1.0));
#1193=DIRECTION('',(-0.92128466398761,-0.0,0.388888888888892));
#1194=DIRECTION('',(0.388888888888882,0.0,-0.921284663987614));
#1195=CARTESIAN_POINT('',(0.0,0.0,0.0));
#1196=DIRECTION('',(0.0,-1.0,0.0));
#1197=DIRECTION('',(0.0,0.0,-1.0));
#1198=DIRECTION('',(0.388888888888895,-0.0,0.921284663987608));
#1199=CARTESIAN_POINT('',(0.0,0.0,0.0));
#1200=DIRECTION('',(0.0,1.0,0.0));
#1201=DIRECTION('',(0.0,0.0,1.0));
#1202=CARTESIAN_POINT('',(0.0,2.3,0.0));
#1203=DIRECTION('',(0.0,1.0,0.0));
#1204=DIRECTION('',(0.0,0.0,1.0));
#1205=DIRECTION('',(-0.0,-1.0,-0.0));
#1206=DIRECTION('',(-0.0,-1.0,-0.0));
#1207=CARTESIAN_POINT('',(0.0,0.0,0.0));
#1208=DIRECTION('',(0.0,1.0,0.0));
#1209=DIRECTION('',(0.0,0.0,1.0));
#1210=DIRECTION('',(-0.0,-1.0,-0.0));
#1211=DIRECTION('',(-0.0,-1.0,-0.0));
#1212=CARTESIAN_POINT('',(0.0,4.5,0.0));
#1213=DIRECTION('',(0.0,1.0,0.0));
#1214=DIRECTION('',(0.0,0.0,1.0));
#1215=DIRECTION('',(0.0,1.0,0.0));
#1216=DIRECTION('',(-1.92035020042723E-016,-0.0,1.0));
#1217=DIRECTION('',(1.0,-0.0,-0.0));
#1218=DIRECTION('',(-1.92035020042723E-016,0.0,-1.0));
#1219=DIRECTION('',(-0.921284663987615,0.0,-0.38888888888888));
#1220=CARTESIAN_POINT('',(0.0,0.0,0.0));
#1221=DIRECTION('',(0.0,-1.0,0.0));
#1222=DIRECTION('',(0.0,0.0,-1.0));
#1223=DIRECTION('',(0.921284663987607,-0.0,-0.388888888888898));
#1224=DIRECTION('',(-0.0,-1.0,-0.0));
#1225=DIRECTION('',(-0.0,-1.0,-0.0));
#1226=DIRECTION('',(-0.0,-1.0,-0.0));
#1227=DIRECTION('',(-0.0,-1.0,-0.0));
#1228=DIRECTION('',(-0.0,-1.0,-0.0));
#1229=DIRECTION('',(-0.0,-1.0,-0.0));
#1230=CARTESIAN_POINT('',(0.0,-4.5,2.0));
#1231=DIRECTION('',(0.0,1.0,0.0));
#1232=DIRECTION('',(0.0,0.0,1.0));
#1233=CARTESIAN_POINT('',(0.0,-4.5,-2.0));
#1234=DIRECTION('',(0.0,1.0,0.0));
#1235=DIRECTION('',(0.0,0.0,-1.0));
#1236=DIRECTION('',(-1.92035020042723E-016,-0.0,1.0));
#1237=DIRECTION('',(-1.92035020042723E-016,0.0,-1.0));
#1238=DIRECTION('',(1.0,-0.0,-0.0));
#1239=DIRECTION('',(0.0,1.0,0.0));
#1240=DIRECTION('',(0.0,1.0,0.0));
#1241=DIRECTION('',(6.19544098563146E-016,-1.0,0.0));
#1242=DIRECTION('',(-1.0,-2.4093381610789E-016,-0.0));
#1243=DIRECTION('',(-0.0,1.0,-0.0));
#1244=DIRECTION('',(1.0,1.20466908053945E-016,0.0));
#1245=DIRECTION('',(-0.0,-0.0,1.0));
#1246=DIRECTION('',(6.19544098563146E-016,-1.0,0.0));
#1247=DIRECTION('',(-0.0,-0.0,1.0));
#1248=DIRECTION('',(-1.0,-2.4093381610789E-016,-0.0));
#1249=DIRECTION('',(-0.0,-0.0,1.0));
#1250=DIRECTION('',(-0.0,1.0,-0.0));
#1251=DIRECTION('',(-0.0,-0.0,1.0));
#1252=DIRECTION('',(1.0,1.20466908053945E-016,0.0));
ENDSEC;
END-ISO-10303-21;
